{
    "forge_marker": 1,
    "defaults": {
        "textures": {
            "all": "ores:blocks/ilmenite_ore_stone"
        },
        "model": "cube_all"
    },
    "variants": {
        "base": {
            "stone": { "textures": { "all": "ores:blocks/ilmenite_ore_stone"  } },
            "granite": { "textures": { "all": "ores:blocks/ilmenite_ore_granite"  } },
            "andesite": { "textures": { "all": "ores:blocks/ilmenite_ore_andesite"  } },
            "basalt": { "textures": { "all": "ores:blocks/ilmenite_ore_basalt"  } },
            "marble": { "textures": { "all": "ores:blocks/ilmenite_ore_marble"  } },
            "slate": { "textures": { "all": "ores:blocks/ilmenite_ore_slate"  } }
        }
    }
}