{
    "forge_marker": 1,
    "defaults": {
        "textures": {
            "all": "ores:blocks/limonite_ore_dirt"
        },
        "model": "cube_all"
    },
    "variants": {
        "base": {
            "dirt": { "textures": { "all": "ores:blocks/limonite_ore_dirt"  } },
            "gravel": { "textures": { "all": "ores:blocks/limonite_ore_gravel"  } }
        }
    }
}